1kHz_input_Oscilloscope_output_for_1kHz_band.csv

#Digilent WaveForms Oscilloscope Acquisition
#Device Name: Discovery2NI
#Serial Number: SN:210321AD1051
#Date Time: 2022-12-04 15:44:12.413
#Sample rate: 800000Hz
#Samples: 8192
#Trigger: Source: Channel 1 Type: Edge Condition: Rising Level: 0 V Hyst.: Auto HoldOff: 0 s
#Channel 1: Range: 500 mV/div Offset: 0 V Attenuation: 1 X
#Channel 2: Range: 500 mV/div Offset: 0 V Attenuation: 1 X

Time (s),Channel 1 (V),Channel 2 (V)
-0.00512,0.2711387469991905,-0.1510639670681777
-0.00511875,0.2657211540165154,-0.1443463020611535
-0.0051175,0.2748633421747767,-0.1386362868051799
-0.00511625,0.2680913509464358,-0.1319186217981587
-0.005115,0.2809581342802894,-0.1248650735407833
-0.00511375,0.2724931452448593,-0.1174756420330567
-0.0051125,0.2647053553322637,-0.1121015100274374
-0.00511125,0.2653825544550978,-0.1037044287686609
-0.00511,0.2626737579637606,-0.09866618001338896
-0.00510875,0.2694457491921033,-0.0919485150063611
-0.0051075,0.266736952700767,-0.08388731699793574
-0.00510625,0.2708001474377764,-0.07784141849161121
-0.005105,0.2775721386661174,-0.07179551998529218
-0.00510375,0.2680913509464358,-0.06440608847756556
-0.0051025,0.2691071496306874,-0.05735254022019015
-0.00510125,0.2721545456834422,-0.0519784082145708
-0.0051,0.2718159461220251,-0.04391721020614543
-0.00509875,0.276894939543283,-0.03854307820052241
-0.0050975,0.2775721386661146,-0.03014599694173941
-0.00509625,0.2714773465606078,-0.02410009843542038
-0.005095,0.2721545456834469,-0.01738243342839297
-0.00509375,0.2826511320873754,-0.01032888517102078
-0.0050925,0.2748633421747798,-0.003275336913645368
-0.00509125,0.2758791408590309,0.002434678342322603
-0.00509,0.2674141518236013,0.01015999310040303
-0.00508875,0.2704615478763548,0.01788530785847734
-0.0050875,0.2741861430519454,0.02191590686269537
-0.00508625,0.2741861430519457,0.03031298812147852
-0.005085,0.2748633421747798,0.0366947698781486
-0.00508375,0.2775721386661174,0.04374831813552401
-0.0050825,0.2724931452448593,0.050130099892197
-0.00508125,0.2714773465606078,0.05684776489922119
-0.00508,0.2738475434905271,0.06490896290764657
-0.00507875,0.2694457491921046,0.06961132841256717
-0.0050775,0.2721545456834409,0.07700075992029043
-0.00507625,0.271815946122025,0.08371842492731799
-0.005075,0.274524742613362,0.0911078564350475
-0.00507375,0.2731703443676938,0.09748963819171759
-0.0050725,0.2748633421747798,0.1038714199483906
-0.00507125,0.2697843487535218,0.1089096687036587
-0.00507,0.2670755522621842,0.118986166214195
-0.00506875,0.2633509570865967,0.1250320647205141
-0.0050675,0.2653825544550982,0.1297344302254337
-0.00506625,0.2647053553322648,0.136787978482813
-0.005065,0.2670755522621842,0.1451850597415894
-0.00506375,0.2657211540165178,0.1502233084968603
-0.0050625,0.2711387469991905,0.1562692070031793
-0.00506125,0.273508943929111,0.1643304050116083
-0.00506,0.2738475434905281,0.1710480700186325
-0.00505875,0.2741861430519454,0.1777657350256567
-0.0050575,0.2741861430519454,0.1828039837809226
-0.00505625,0.2731703443676938,0.1898575320383003
-0.005055,0.2684299505078551,0.1969110802956786
-0.00505375,0.2731703443676938,0.2032928620523487
-0.0050525,0.2752019417362008,0.2100105270593755
-0.00505125,0.283666930771627,0.2157205423153434
-0.00505,0.268429950507853,0.2231099738230701
-0.00504875,0.2697843487535211,0.2308352885811444
-0.0050475,0.266736952700767,0.2365453038371185
-0.00504625,0.2708001474377715,0.2422553190930865
-0.005045,0.2765563399818657,0.2489729841001132
-0.00504375,0.2738475434905294,0.2563624156078421
-0.0050425,0.2765563399818657,0.261400664363108
-0.00504125,0.2826511320873754,0.2687900958708346
-0.00504,0.2762177404204486,0.2751718776275076
-0.00503875,0.2752019417361969,0.280546009633127
-0.0050375,0.2691071496306902,0.2892789741422545
-0.00503625,0.2721545456834422,0.2936454563968242
-0.005035,0.2772335391046978,0.3003631214038453
-0.00503375,0.273508943929111,0.3060731366598189
-0.0050325,0.2741861430519458,0.3124549184164953
-0.00503125,0.2752019417361969,0.3198443499242185
-0.00503,0.2775721386661174,0.3258902484305403
-0.00502875,0.266736952700767,0.3312643804361596
-0.0050275,0.2691071496306874,0.3396614616949399
-0.00502625,0.2691071496306874,0.3440279439495036
-0.005025,0.268429950507853,0.3507456089565298
-0.00502375,0.2674141518236024,0.3571273907132057
-0.0050225,0.2697843487535218,0.3635091724698758
-0.00502125,0.267414151823606,0.3692191877258488
-0.00502,0.2775721386661174,0.3745933197314657
-0.00501875,0.2738475434905281,0.3816468679888411
-0.0050175,0.2762177404204486,0.3870209999944605
-0.00501625,0.2687685500692701,0.3937386650014847
-0.005015,0.2714773465606066,0.3994486802574527
-0.00501375,0.2721545456834422,0.4051586955134258
-0.0050125,0.2718159461220267,0.4105328275190484
-0.00501125,0.2755405412976142,0.4175863757764206
-0.00501,0.2785879373503684,0.4232963910323936
-0.00500875,0.2772335391047002,0.4286705230380105
-0.0050075,0.2704615478763562,0.4353881880450347
-0.00500625,0.2674141518236013,0.4400905535499516
-0.005005,0.2660597535779325,0.4471441018073271
-0.00500375,0.2647053553322644,0.452854117063295
-0.0050025,0.2724931452448593,0.4578923658185658
-0.00500125,0.2724931452448607,0.4636023810745391
-0.005,0.2755405412976142,0.4696482795808581
-0.00499875,0.2728317448062766,0.4753582948368287
-0.0049975,0.2816353334031237,0.4800606603417456
-0.00499625,0.2782493377889518,0.487114208599121
-0.004995,0.2714773465606108,0.4918165741040358
-0.00499375,0.2708001474377734,0.4965189396089549
-0.0049925,0.2718159461220245,0.503572487866327
-0.00499125,0.278587937350369,0.509618386372652
-0.00499,0.2721545456834412,0.5133131021265187
-0.00498875,0.2701229483149389,0.5207025336342419
-0.0049875,0.2657211540165154,0.5247331326384564
-0.00498625,0.2755405412976142,0.5294354981433734
-0.004985,0.2674141518236013,0.5364890464007488
-0.00498375,0.2643667557708479,0.5395119956539084
-0.0049825,0.2640281562094294,0.5462296606609339
-0.00498125,0.2647053553322647,0.5522755591672578
-0.00498,0.266736952700767,0.5569779246721727
-0.00497875,0.2684299505078568,0.5610085236763899
-0.0049775,0.276894939543283,0.567054422182709
-0.00497625,0.2758791408590314,0.5724285541883283
-0.004975,0.2782493377889518,0.576795036442894
-0.00497375,0.2724931452448593,0.581497401947811
-0.0049725,0.2684299505078548,0.5875433004541299
-0.00497125,0.2731703443676938,0.5919097827086984
-0.00497,0.2718159461220271,0.5962762649632669
-0.00496875,0.2765563399818657,0.602322163469586
-0.0049675,0.2752019417361956,0.6070245289745048
-0.00496625,0.2721545456834422,0.6110551279787174
-0.004965,0.2806195347188721,0.615085726982932
-0.00496375,0.2728317448062766,0.6207957422389025
-0.0049625,0.2657211540165154,0.626505757494873
-0.00496125,0.2677527513850176,0.6305363564990857
-0.00496,0.2680913509464358,0.6352387220040046
-0.00495875,0.2748633421747787,0.6396052042585721
-0.0049575,0.2724931452448593,0.6436358032627848
-0.00495625,0.2762177404204486,0.6496817017691066
-0.004955,0.271815946122025,0.6530405342726187
-0.00495375,0.2809581342802894,0.658414666278238
-0.0049525,0.2772335391047019,0.6621093820320997
-0.00495125,0.2724931452448593,0.6661399810363158
-0.00495,0.27012294831494,0.6711782297915816
-0.00494875,0.2724931452448593,0.6738652957943937
-0.0049475,0.2711387469991886,0.6799111943007173
-0.00494625,0.266736952700767,0.68394179330493
-0.004945,0.263350957086595,0.6869647425580908
-0.00494375,0.271815946122025,0.6906594583119542
-0.0049425,0.2663983531393498,0.6956977070672223
-0.00494125,0.2653825544550986,0.6987206563203818
-0.00494,0.2623351584023434,0.7034230218253001
-0.00493875,0.2569175654196706,0.7071177375791617
-0.0049375,0.2674141518236013,0.7118201030840804
-0.00493625,0.2738475434905301,0.7141712858365418
-0.004935,0.2782493377889518,0.7205530675932118
-0.00493375,0.2860371277015474,0.7229042503456703
-0.0049325,0.271815946122025,0.72559131634848
-0.00493125,0.2714773465606078,0.7306295651037481
-0.00493,0.2667369527007691,0.7316372148548013
-0.00492875,0.2660597535779325,0.7380189966114747
-0.0049275,0.2762177404204473,0.7396984128632327
-0.00492625,0.273508943929111,0.7437290118674453
-0.004925,0.2762177404204482,0.7487672606227146
-0.00492375,0.2755405412976142,0.7511184433751719
-0.0049225,0.2789265369117861,0.7541413926283328
-0.00492125,0.2691071496306874,0.7575002251318449
-0.00492,0.2704615478763562,0.7605231743850058
-0.00491875,0.2701229483149391,0.7632102403878143
-0.0049175,0.2704615478763562,0.7669049561416788
-0.00491625,0.279603736034619,0.770599671895543
-0.004915,0.2762177404204486,0.7726149713976493
-0.00491375,0.2738475434905312,0.7776532201529183
-0.0049125,0.2806195347188721,0.7793326364046735
-0.00491125,0.2812967338417066,0.7820197024074832
-0.00491,0.2775721386661191,0.7857144181613449
-0.00490875,0.273508943929111,0.7873938344131026
-0.0049075,0.2711387469991916,0.7917603166676663
-0.00490625,0.2765563399818657,0.7937756161697755
-0.004905,0.2708001474377715,0.79444738267048
-0.00490375,0.266736952700767,0.7988138649250437
-0.0049025,0.2643667557708466,0.8028444639292582
-0.00490125,0.2802809351574549,0.8035162304299607
-0.0049,0.2653825544550982,0.8058674131824192
-0.00489875,0.2616579592795107,0.8102338954369829
-0.0048975,0.2626737579637606,0.8109056619376873
-0.00489625,0.2650439548936799,0.8132568446901446
-0.004895,0.2694457491921046,0.8169515604440091
-0.00489375,0.2758791408590323,0.8186309766957658
-0.0048925,0.2779107382275345,0.8199745096971699
-0.00489125,0.2806195347188721,0.8229974589503308
-0.00489,0.2721545456834422,0.825012758452438
-0.00488875,0.2691071496306874,0.8253486417027893
-0.0048875,0.2657211540165169,0.829379240707002
-0.00488625,0.2701229483149389,0.8293792407070039
-0.004885,0.2735089439291117,0.8327380732105163
-0.00488375,0.2752019417361969,0.8334098397112183
-0.0048825,0.2735089439291122,0.8371045554650812
-0.00488125,0.2762177404204486,0.8360969057140281
-0.00488,0.2711387469991905,0.8381122052161353
-0.00487875,0.2738475434905281,0.8428145707210523
-0.0048775,0.2694457491921046,0.8421428042203498
-0.00487625,0.272493145244858,0.8438222204721051
-0.004875,0.276894939543283,0.8461734032245644
-0.00487375,0.2711387469991933,0.846173403224566
-0.0048725,0.2772335391047002,0.8498681189784276
-0.00487125,0.2731703443676956,0.8495322357280772
-0.00487,0.2772335391047002,0.8512116519798325
-0.00486875,0.2752019417361969,0.8525551849812373
-0.0048675,0.2745247426133629,0.8542346012329926
-0.00486625,0.2708001474377734,0.8538987179826422
-0.004865,0.268091350946437,0.8569216672358017
-0.00486375,0.2670755522621842,0.8555781342343982
-0.0048625,0.266736952700768,0.8565857839854529
-0.00486125,0.2691071496306874,0.8589369667379103
-0.00486,0.271815946122025,0.8606163829896664
-0.00485875,0.2687685500692701,0.8596087332386126
-0.0048575,0.265043954893681,0.8612881494903687
-0.00485625,0.2606421605952594,0.8606163829896667
-0.004855,0.2653825544550982,0.8626316824917736
-0.00485375,0.2663983531393493,0.8629675657421246
-0.0048525,0.2694457491921046,0.8619599159910711
-0.00485125,0.2741861430519451,0.8659905149952845
-0.00485,0.273508943929111,0.863303448992476
-0.00484875,0.2782493377889518,0.8656546317449345
-0.0048475,0.2701229483149389,0.8646469819938808
-0.00484625,0.265043954893681,0.8649828652442321
-0.004845,0.2677527513850174,0.8653187484945831
-0.00484375,0.2745247426133626,0.8659905149952857
-0.0048425,0.2741861430519446,0.8656546317449346
-0.00484125,0.2724931452448593,0.8659905149952857
-0.00484,0.2718159461220254,0.8653187484945833
-0.00483875,0.2728317448062766,0.8656546317449345
-0.0048375,0.273508943929111,0.8653187484945832
-0.00483625,0.2660597535779325,0.8666622814959881
-0.004835,0.2687685500692701,0.8659905149952857
-0.00483375,0.2694457491921042,0.8649828652442325
-0.0048325,0.2775721386661174,0.8643110987435296
-0.00483125,0.2752019417361965,0.8639752154931785
-0.00483,0.2741861430519454,0.8639752154931785
-0.00482875,0.276894939543283,0.8636393322428271
-0.0048275,0.276894939543283,0.863303448992476
-0.00482625,0.2741861430519454,0.8626316824917736
-0.004825,0.2721545456834431,0.8619599159910715
-0.00482375,0.2697843487535218,0.8622957992414224
-0.0048225,0.2735089439291092,0.8606163829896671
-0.00482125,0.2704615478763562,0.8592728499882615
-0.00482,0.2670755522621857,0.8596087332386114
-0.00481875,0.2704615478763562,0.856921667235803
-0.0048175,0.2755405412976142,0.8575934337365054
-0.00481625,0.2711387469991905,0.8559140174847494
-0.004815,0.2657211540165154,0.8549063677336958
-0.00481375,0.2694457491921028,0.8538987179826426
-0.0048125,0.2653825544550982,0.8522193017308861
-0.00481125,0.2748633421747754,0.851547535230184
-0.00481,0.2741861430519454,0.8505398854791301
-0.00480875,0.2765563399818645,0.8485245859770227
-0.0048075,0.2738475434905281,0.8485245859770227
-0.00480625,0.2714773465606078,0.8448298702231595
-0.004805,0.268429950507853,0.8458375199742131
-0.00480375,0.2687685500692701,0.8431504539714034
-0.0048025,0.2684299505078531,0.8418069209699992
-0.00480125,0.2772335391047002,0.8401275047182425
-0.0048,0.2745247426133616,0.8381122052161349
-0.00479875,0.2724931452448593,0.8374404387154328
-0.0047975,0.2782493377889502,0.8334098397112184
-0.00479625,0.2748633421747798,0.8337457229615696
-0.004795,0.2708001474377734,0.8317304234594622
-0.00479375,0.2704615478763562,0.8287074742063014
-0.0047925,0.2694457491921046,0.828035707705599
-0.00479125,0.2738475434905261,0.8246768752020884
-0.00479,0.2704615478763562,0.823333342200682
-0.00478875,0.2745247426133627,0.8203103929475203
-0.0047875,0.2748633421747798,0.8182950934454138
-0.00478625,0.2745247426133636,0.8172874436943595
-0.004785,0.276894939543283,0.8156080274426042
-0.00478375,0.2758791408590314,0.8112415451880385
-0.0047825,0.2704615478763586,0.8098980121866343
-0.00478125,0.2674141518236013,0.8065391796831215
-0.00478,0.2663983531393502,0.8048597634313662
-0.00477875,0.2670755522621842,0.8015009309278534
-0.0047775,0.2721545456834371,0.8008291644271487
-0.00477625,0.2609807601566746,0.7957909156718829
-0.004775,0.2677527513850186,0.7951191491711804
-0.00477375,0.2745247426133626,0.7917603166676683
-0.0047725,0.2657211540165154,0.7884014841641562
-0.00477125,0.2701229483149369,0.786722067912401
-0.00477,0.2714773465606078,0.781683819157132
-0.00476875,0.2714773465606078,0.781683819157132
-0.0047675,0.2741861430519454,0.7756379206508103
-0.00476625,0.2728317448062756,0.7749661541501065
-0.004765,0.2708001474377734,0.7719432048969469
-0.00476375,0.2704615478763562,0.7682484891430836
-0.0047625,0.2728317448062766,0.7638820068885179
-0.00476125,0.2745247426133626,0.7622025906367619
-0.00476,0.2687685500692727,0.7605231743850066
-0.00475875,0.2663983531393498,0.7534696261276304
-0.0047575,0.2745247426133598,0.7527978596269262
-0.00475625,0.268429950507853,0.7491031438730646
-0.004755,0.2728317448062764,0.7454084281191995
-0.00475375,0.2724931452448593,0.7413778291149868
-0.0047525,0.2752019417361969,0.7386907631121772
-0.00475125,0.2762177404204486,0.733652514356909
-0.00475,0.273508943929111,0.7313013316044505
-0.00474875,0.2657211540165189,0.7272707326002379
-0.0047475,0.2640281562094294,0.7239119000967239
-0.00474625,0.2687685500692723,0.7208889508435612
-0.004745,0.273508943929111,0.7168583518393485
-0.00474375,0.2752019417361954,0.7111483365833771
-0.0047425,0.271815946122025,0.7091330370812707
-0.00474125,0.2724931452448593,0.7044306715763538
-0.00474,0.2809581342802855,0.7014077223231941
-0.00473875,0.2745247426133626,0.6970412400686271
-0.0047375,0.2697843487535239,0.6923388745637123
-0.00473625,0.2680913509464358,0.6893159253105493
-0.004735,0.2691071496306864,0.684949443055981
-0.00473375,0.2670755522621842,0.679239427800013
-0.0047325,0.2613193597180918,0.6762164785468521
-0.00473125,0.265043954893681,0.6725217627929888
-0.00473,0.266736952700767,0.6674835140377207
-0.00472875,0.2738475434905249,0.6644605647845611
-0.0047275,0.2745247426133626,0.658414666278238
-0.00472625,0.2714773465606092,0.6543840672740253
-0.004725,0.2674141518236013,0.6493458185187553
-0.00472375,0.2636895566480145,0.6459869860152412
-0.0047225,0.2687685500692701,0.6416205037606775
-0.00472125,0.2748633421747798,0.6365822550054093
-0.00472,0.2714773465606078,0.6305363564990876
-0.00471875,0.2745247426133626,0.6285210569969804
-0.0047175,0.2816353334031205,0.6218033919899593
-0.00471625,0.2714773465606078,0.6177727929857416
-0.004715,0.2647053553322665,0.6130704274808221
-0.00471375,0.2708001474377734,0.6073604122248542
-0.0047125,0.2738475434905278,0.6033298132206372
-0.00471125,0.2731703443676938,0.5979556812150202
-0.00471,0.2748633421747798,0.5952686152122105
-0.00470875,0.2752019417361969,0.5878791837044839
-0.0047075,0.2728317448062766,0.5838485847002695
-0.00470625,0.275540541297613,0.5784744526946525
-0.004705,0.2728317448062766,0.5734362039393819
-0.00470375,0.269445749192106,0.5683979551841114
-0.0047025,0.2724931452448593,0.5633597064288456
-0.00470125,0.2738475434905277,0.559664990674979
-0.0047,0.2728317448062766,0.5522755591672557
-0.00469875,0.2762177404204486,0.54790907691269
-0.0046975,0.2738475434905292,0.5428708281574242
-0.00469625,0.2792651364732033,0.5374966961518024
-0.004695,0.2779107382275351,0.5311149143951324
-0.00469375,0.2728317448062766,0.5267484321405638
-0.0046925,0.2684299505078508,0.5210384168845911
-0.00469125,0.2636895566480122,0.5163360513796762
-0.00469,0.2691071496306874,0.5102901528733544
-0.00468875,0.2613193597180918,0.5059236706187887
-0.0046875,0.2691071496306874,0.4988701223614134
-0.00468625,0.273847543490526,0.4938318736061475
-0.004685,0.2708001474377734,0.4877859750998235
-0.00468375,0.2775721386661143,0.4827477263445576
-0.0046825,0.2691071496306874,0.4763659445878823
-0.00468125,0.2663983531393502,0.4713276958326117
-0.00468,0.2674141518236013,0.4659535638269948
-0.00467875,0.2697843487535218,0.4592358988199706
-0.0046775,0.2670755522621842,0.4545335333150537
-0.00467625,0.2775721386661174,0.4488235180590831
-0.004675,0.2711387469991935,0.4417699698017109
-0.00467375,0.2738475434905281,0.4370676042967908
-0.0046725,0.277572138666116,0.4306858225401153
-0.00467125,0.2745247426133626,0.4253116905344984
-0.00467,0.2667369527007673,0.4189299087778225
-0.00466875,0.2674141518236013,0.4125481270211525
-0.0046675,0.2647053553322637,0.4075098782658843
-0.00466625,0.2687685500692701,0.4004563300085089
-0.004665,0.273508943929111,0.395753964503592
-0.00466375,0.2714773465606087,0.3893721827469219
-0.0046625,0.271815946122025,0.3823186344895436
-0.00466125,0.2796037360346186,0.3779521522349744
-0.00466,0.2752019417361969,0.3705627207272512
-0.00465875,0.2697843487535219,0.363509172469874
-0.0046575,0.2701229483149389,0.3594785734656613
-0.00465625,0.2704615478763562,0.3524250252082859
-0.004655,0.2701229483149389,0.344699710450208
-0.00465375,0.2711387469991905,0.3406691114459935
-0.0046525,0.2704615478763565,0.3342873296893235
-0.00465125,0.2653825544550982,0.3282414311829988
-0.00465,0.2708001474377723,0.3215237661759712
-0.00464875,0.268429950507853,0.314134334668248
-0.0046475,0.2680913509464358,0.3101037356640334
-0.00464625,0.268429950507853,0.3023784209059556
-0.004645,0.2677527513850186,0.2970042889003363
-0.00464375,0.2724931452448572,0.2892789741422619
-0.0046425,0.2680913509464358,0.2839048421366391
-0.00464125,0.2708001474377721,0.2771871771296179
-0.00464,0.2728317448062766,0.2701336288722395
-0.00463875,0.2799423355960362,0.2650953801169678
-0.0046375,0.2765563399818657,0.2573700653588935
-0.00463625,0.2731703443676938,0.2513241668525717
-0.004635,0.2660597535779325,0.2462859180973035
-0.00463375,0.2714773465606078,0.2365453038371185
-0.0046325,0.2752019417361952,0.2321788215825548
-0.00463125,0.2789265369117861,0.2257970398258797
-0.00463,0.2775721386661164,0.2173999585670977
-0.00462875,0.2755405412976142,0.213369359562885
-0.0046275,0.2762177404204492,0.2053081615544534
-0.00462625,0.2775721386661174,0.1995981462984854
-0.004625,0.2670755522621842,0.19254459804111
-0.00462375,0.2708001474377734,0.1851551665333834
-0.0046225,0.2731703443676938,0.1807886842788176
